%YAML 1.1
%TAG !u! tag:unity3d.com,2011:
--- !u!74 &7400000
AnimationClip:
  m_ObjectHideFlags: 0
  m_CorrespondingSourceObject: {fileID: 0}
  m_PrefabInstance: {fileID: 0}
  m_PrefabAsset: {fileID: 0}
  m_Name: nitro
  serializedVersion: 6
  m_Legacy: 0
  m_Compressed: 0
  m_UseHighQualityCurve: 1
  m_RotationCurves: []
  m_CompressedRotationCurves: []
  m_EulerCurves: []
  m_PositionCurves: []
  m_ScaleCurves: []
  m_FloatCurves: []
  m_PPtrCurves:
  - curve:
    - time: 0
      value: {fileID: -2932603657010849340, guid: 2bb3ac57fcff678408ef98f5f1647b19, type: 3}
    - time: 0.06666667
      value: {fileID: 7071020848720279480, guid: 2bb3ac57fcff678408ef98f5f1647b19, type: 3}
    - time: 0.13333334
      value: {fileID: 3815272097668552594, guid: 2bb3ac57fcff678408ef98f5f1647b19, type: 3}
    - time: 0.18333334
      value: {fileID: -1560844751567211675, guid: 2bb3ac57fcff678408ef98f5f1647b19, type: 3}
    - time: 0.25
      value: {fileID: -6028352307018813939, guid: 2bb3ac57fcff678408ef98f5f1647b19, type: 3}
    - time: 0.31666666
      value: {fileID: -8581892382806946916, guid: 2bb3ac57fcff678408ef98f5f1647b19, type: 3}
    - time: 0.36666667
      value: {fileID: -8035801973566787231, guid: 2bb3ac57fcff678408ef98f5f1647b19, type: 3}
    - time: 0.43333334
      value: {fileID: -3447658887668125989, guid: 2bb3ac57fcff678408ef98f5f1647b19, type: 3}
    - time: 0.5
      value: {fileID: -7577743521892927455, guid: 2bb3ac57fcff678408ef98f5f1647b19, type: 3}
    - time: 0.56666666
      value: {fileID: 4036706197241908654, guid: 2bb3ac57fcff678408ef98f5f1647b19, type: 3}
    - time: 0.6333333
      value: {fileID: 7313181796983386645, guid: 2bb3ac57fcff678408ef98f5f1647b19, type: 3}
    - time: 0.68333334
      value: {fileID: -6948400511458518134, guid: 2bb3ac57fcff678408ef98f5f1647b19, type: 3}
    - time: 0.75
      value: {fileID: 206678466555796870, guid: 2bb3ac57fcff678408ef98f5f1647b19, type: 3}
    - time: 0.81666666
      value: {fileID: 8124470611788766003, guid: 2bb3ac57fcff678408ef98f5f1647b19, type: 3}
    - time: 0.8666667
      value: {fileID: -4464054309851911100, guid: 2bb3ac57fcff678408ef98f5f1647b19, type: 3}
    - time: 0.93333334
      value: {fileID: -8569605227741404332, guid: 2bb3ac57fcff678408ef98f5f1647b19, type: 3}
    - time: 1
      value: {fileID: 552718262994130045, guid: 2bb3ac57fcff678408ef98f5f1647b19, type: 3}
    attribute: m_Sprite
    path: 
    classID: 114
    script: {fileID: 11500000, guid: fe87c0e1cc204ed48ad3b37840f39efc, type: 3}
  m_SampleRate: 60
  m_WrapMode: 0
  m_Bounds:
    m_Center: {x: 0, y: 0, z: 0}
    m_Extent: {x: 0, y: 0, z: 0}
  m_ClipBindingConstant:
    genericBindings:
    - serializedVersion: 2
      path: 0
      attribute: 2015549526
      script: {fileID: 11500000, guid: fe87c0e1cc204ed48ad3b37840f39efc, type: 3}
      typeID: 114
      customType: 0
      isPPtrCurve: 1
    pptrCurveMapping:
    - {fileID: -2932603657010849340, guid: 2bb3ac57fcff678408ef98f5f1647b19, type: 3}
    - {fileID: 7071020848720279480, guid: 2bb3ac57fcff678408ef98f5f1647b19, type: 3}
    - {fileID: 3815272097668552594, guid: 2bb3ac57fcff678408ef98f5f1647b19, type: 3}
    - {fileID: -1560844751567211675, guid: 2bb3ac57fcff678408ef98f5f1647b19, type: 3}
    - {fileID: -6028352307018813939, guid: 2bb3ac57fcff678408ef98f5f1647b19, type: 3}
    - {fileID: -8581892382806946916, guid: 2bb3ac57fcff678408ef98f5f1647b19, type: 3}
    - {fileID: -8035801973566787231, guid: 2bb3ac57fcff678408ef98f5f1647b19, type: 3}
    - {fileID: -3447658887668125989, guid: 2bb3ac57fcff678408ef98f5f1647b19, type: 3}
    - {fileID: -7577743521892927455, guid: 2bb3ac57fcff678408ef98f5f1647b19, type: 3}
    - {fileID: 4036706197241908654, guid: 2bb3ac57fcff678408ef98f5f1647b19, type: 3}
    - {fileID: 7313181796983386645, guid: 2bb3ac57fcff678408ef98f5f1647b19, type: 3}
    - {fileID: -6948400511458518134, guid: 2bb3ac57fcff678408ef98f5f1647b19, type: 3}
    - {fileID: 206678466555796870, guid: 2bb3ac57fcff678408ef98f5f1647b19, type: 3}
    - {fileID: 8124470611788766003, guid: 2bb3ac57fcff678408ef98f5f1647b19, type: 3}
    - {fileID: -4464054309851911100, guid: 2bb3ac57fcff678408ef98f5f1647b19, type: 3}
    - {fileID: -8569605227741404332, guid: 2bb3ac57fcff678408ef98f5f1647b19, type: 3}
    - {fileID: 552718262994130045, guid: 2bb3ac57fcff678408ef98f5f1647b19, type: 3}
  m_AnimationClipSettings:
    serializedVersion: 2
    m_AdditiveReferencePoseClip: {fileID: 0}
    m_AdditiveReferencePoseTime: 0
    m_StartTime: 0
    m_StopTime: 1.0166667
    m_OrientationOffsetY: 0
    m_Level: 0
    m_CycleOffset: 0
    m_HasAdditiveReferencePose: 0
    m_LoopTime: 1
    m_LoopBlend: 0
    m_LoopBlendOrientation: 0
    m_LoopBlendPositionY: 0
    m_LoopBlendPositionXZ: 0
    m_KeepOriginalOrientation: 0
    m_KeepOriginalPositionY: 1
    m_KeepOriginalPositionXZ: 0
    m_HeightFromFeet: 0
    m_Mirror: 0
  m_EditorCurves: []
  m_EulerEditorCurves: []
  m_HasGenericRootTransform: 0
  m_HasMotionFloatCurves: 0
  m_Events: []
