%YAML 1.1
%TAG !u! tag:unity3d.com,2011:
--- !u!74 &7400000
AnimationClip:
  m_ObjectHideFlags: 0
  m_CorrespondingSourceObject: {fileID: 0}
  m_PrefabInstance: {fileID: 0}
  m_PrefabAsset: {fileID: 0}
  m_Name: MoonSpin
  serializedVersion: 6
  m_Legacy: 0
  m_Compressed: 0
  m_UseHighQualityCurve: 1
  m_RotationCurves: []
  m_CompressedRotationCurves: []
  m_EulerCurves: []
  m_PositionCurves: []
  m_ScaleCurves: []
  m_FloatCurves: []
  m_PPtrCurves:
  - curve:
    - time: 0
      value: {fileID: 21300000, guid: 25fbd1024a97d8b4eac0801ebb827a6f, type: 3}
    - time: 0.016666668
      value: {fileID: 21300000, guid: c40905c4f35ba2d40badef6bf347d775, type: 3}
    - time: 0.033333335
      value: {fileID: 21300000, guid: ce24015c67e8aa547a6fc252b6500d59, type: 3}
    - time: 0.05
      value: {fileID: 21300000, guid: c7d0351566febbb4b8d8cb62f734142d, type: 3}
    - time: 0.06666667
      value: {fileID: 21300000, guid: 1da5d8237710900489c0165a7a2766e9, type: 3}
    - time: 0.083333336
      value: {fileID: 21300000, guid: fd59d519e5a95a841b091ac059fe8d28, type: 3}
    - time: 0.1
      value: {fileID: 21300000, guid: b6035975130c0254e80476397183a503, type: 3}
    - time: 0.11666667
      value: {fileID: 21300000, guid: 8eb2c2042973812449ae3e1ef350a3c9, type: 3}
    - time: 0.13333334
      value: {fileID: 21300000, guid: 34553b1633475534f983a942f2c7ada1, type: 3}
    - time: 0.15
      value: {fileID: 21300000, guid: ae9742d8c1470c441b564c665df3c6c6, type: 3}
    - time: 0.16666667
      value: {fileID: 21300000, guid: 036cd70795dca2549b972b3ef7f5de98, type: 3}
    - time: 0.18333334
      value: {fileID: 21300000, guid: a34ebd497dfb6d5468e21dd442c62f18, type: 3}
    - time: 0.2
      value: {fileID: 21300000, guid: 9c8b926158bb08049a1ce9a7f1b970c7, type: 3}
    - time: 0.21666667
      value: {fileID: 21300000, guid: fd27645f99788be4e8177e1ff10609b9, type: 3}
    - time: 0.23333333
      value: {fileID: 21300000, guid: e36a73891325f604f89ffae7f99bf0da, type: 3}
    - time: 0.25
      value: {fileID: 21300000, guid: f9ada7b0ca7910c40972eb40c88551d4, type: 3}
    - time: 0.26666668
      value: {fileID: 21300000, guid: 237805641a3ab3d4fbde09629e655315, type: 3}
    - time: 0.28333333
      value: {fileID: 21300000, guid: 22eb2b3791fbb4340be5f50280964ca0, type: 3}
    - time: 0.3
      value: {fileID: 21300000, guid: c4f9fbb5ada1c814cbbb2696b02e0756, type: 3}
    - time: 0.31666666
      value: {fileID: 21300000, guid: 06b391401de9b764a94f778e9a03dcde, type: 3}
    - time: 0.33333334
      value: {fileID: 21300000, guid: d3850fadbccd6024baf0fe1034541a69, type: 3}
    - time: 0.35
      value: {fileID: 21300000, guid: 7c0d5ffe828101849b4b6b2ce7b3a6ea, type: 3}
    - time: 0.36666667
      value: {fileID: 21300000, guid: 0b538c3563470ce4ebabb101ba40b08a, type: 3}
    - time: 0.38333333
      value: {fileID: 21300000, guid: 8c75c237ec4f6c54aa1de248e40edb18, type: 3}
    - time: 0.4
      value: {fileID: 21300000, guid: bff215ee06b000648a6d6a770d411726, type: 3}
    - time: 0.41666666
      value: {fileID: 21300000, guid: c0c43c436def9634b909521f821386de, type: 3}
    - time: 0.43333334
      value: {fileID: 21300000, guid: 317864dbf37e18d45b56bc97d64ffe3b, type: 3}
    - time: 0.45
      value: {fileID: 21300000, guid: b24dc85323151534fbc047b9f8acbb7b, type: 3}
    - time: 0.46666667
      value: {fileID: 21300000, guid: 971d2aa54469da840bd94e6997d02127, type: 3}
    - time: 0.48333332
      value: {fileID: 21300000, guid: ea386841a92147b44a9ce73a833a70f7, type: 3}
    - time: 0.5
      value: {fileID: 21300000, guid: 78e5733234caf844d9d4863e0909bd4d, type: 3}
    - time: 0.51666665
      value: {fileID: 21300000, guid: 34f44eb5a2e06824c806e96085dc4ff3, type: 3}
    - time: 0.53333336
      value: {fileID: 21300000, guid: 88a48a30d3125f44493353ee4cd98a71, type: 3}
    - time: 0.55
      value: {fileID: 21300000, guid: becbfb616835b3748af6d72ef9afa619, type: 3}
    - time: 0.56666666
      value: {fileID: 21300000, guid: 9ee1d974a495c0b478598e390b9d7bc9, type: 3}
    - time: 0.5833333
      value: {fileID: 21300000, guid: 1acf87a7a3b9c2545a4950e95452d860, type: 3}
    - time: 0.6
      value: {fileID: 21300000, guid: 179b00bc540c74e4b90e59c667a0e7e9, type: 3}
    - time: 0.6166667
      value: {fileID: 21300000, guid: f15802403d78ea049b43d6ab20e6c686, type: 3}
    - time: 0.6333333
      value: {fileID: 21300000, guid: 33f6a56cd7404904bb489f46209b4181, type: 3}
    - time: 0.65
      value: {fileID: 21300000, guid: f682e658fb4017e4eb4fdcafdbabdbd9, type: 3}
    - time: 0.6666667
      value: {fileID: 21300000, guid: 9f8865fcbd4d1154eb60706b0a5e32a5, type: 3}
    - time: 0.68333334
      value: {fileID: 21300000, guid: 460a63b01bf3a5845a460e0c99023c5a, type: 3}
    - time: 0.7
      value: {fileID: 21300000, guid: 0f83e25ad0bc96945aec8bf64009fe1a, type: 3}
    - time: 0.71666664
      value: {fileID: 21300000, guid: 3af0c3e2ccd593f4ba0a0132e17a9cc6, type: 3}
    - time: 0.73333335
      value: {fileID: 21300000, guid: 1492905d0614ce44f902e2d842d129b4, type: 3}
    - time: 0.75
      value: {fileID: 21300000, guid: 8e2394e843c168a4e9c0ac62b231f018, type: 3}
    - time: 0.76666665
      value: {fileID: 21300000, guid: c3067ac23b55b464494e0189aa955537, type: 3}
    - time: 0.78333336
      value: {fileID: 21300000, guid: dcb03dbe09192574983d07faf13b2be2, type: 3}
    - time: 0.8
      value: {fileID: 21300000, guid: 66a7b69fcd075a24d81180426a126d4a, type: 3}
    - time: 0.81666666
      value: {fileID: 21300000, guid: d5ccda123c477fd4aaef6926cf3a2b86, type: 3}
    - time: 0.8333333
      value: {fileID: 21300000, guid: cb3d1155af8c120428b54b9d738ad6d7, type: 3}
    - time: 0.85
      value: {fileID: 21300000, guid: 4c17530180db6d24ca6abc0280b1ea14, type: 3}
    - time: 0.8666667
      value: {fileID: 21300000, guid: 345a4a5475175b549af58b44bff1b8af, type: 3}
    - time: 0.8833333
      value: {fileID: 21300000, guid: 9ac293bd4912e14449e6f9c6990d644c, type: 3}
    - time: 0.9
      value: {fileID: 21300000, guid: fd5c81c32ca6dae4c8cb6502890f9e0e, type: 3}
    - time: 0.9166667
      value: {fileID: 21300000, guid: 42b63a882a5df014885a46b5757be3f4, type: 3}
    - time: 0.93333334
      value: {fileID: 21300000, guid: 3307bd0159bb055429f1d9141e81a949, type: 3}
    - time: 0.95
      value: {fileID: 21300000, guid: cdb569cbc4a9fe74d8cd9b39f7ead9d7, type: 3}
    - time: 0.96666664
      value: {fileID: 21300000, guid: 63d95c8d1ae1e3244ad4a1994d113977, type: 3}
    - time: 0.98333335
      value: {fileID: 21300000, guid: a6b3f18e36f85ff4ba70511ea44bcab5, type: 3}
    attribute: m_Sprite
    path: 
    classID: 212
    script: {fileID: 0}
  m_SampleRate: 60
  m_WrapMode: 0
  m_Bounds:
    m_Center: {x: 0, y: 0, z: 0}
    m_Extent: {x: 0, y: 0, z: 0}
  m_ClipBindingConstant:
    genericBindings:
    - serializedVersion: 2
      path: 0
      attribute: 0
      script: {fileID: 0}
      typeID: 212
      customType: 23
      isPPtrCurve: 1
    pptrCurveMapping:
    - {fileID: 21300000, guid: 25fbd1024a97d8b4eac0801ebb827a6f, type: 3}
    - {fileID: 21300000, guid: c40905c4f35ba2d40badef6bf347d775, type: 3}
    - {fileID: 21300000, guid: ce24015c67e8aa547a6fc252b6500d59, type: 3}
    - {fileID: 21300000, guid: c7d0351566febbb4b8d8cb62f734142d, type: 3}
    - {fileID: 21300000, guid: 1da5d8237710900489c0165a7a2766e9, type: 3}
    - {fileID: 21300000, guid: fd59d519e5a95a841b091ac059fe8d28, type: 3}
    - {fileID: 21300000, guid: b6035975130c0254e80476397183a503, type: 3}
    - {fileID: 21300000, guid: 8eb2c2042973812449ae3e1ef350a3c9, type: 3}
    - {fileID: 21300000, guid: 34553b1633475534f983a942f2c7ada1, type: 3}
    - {fileID: 21300000, guid: ae9742d8c1470c441b564c665df3c6c6, type: 3}
    - {fileID: 21300000, guid: 036cd70795dca2549b972b3ef7f5de98, type: 3}
    - {fileID: 21300000, guid: a34ebd497dfb6d5468e21dd442c62f18, type: 3}
    - {fileID: 21300000, guid: 9c8b926158bb08049a1ce9a7f1b970c7, type: 3}
    - {fileID: 21300000, guid: fd27645f99788be4e8177e1ff10609b9, type: 3}
    - {fileID: 21300000, guid: e36a73891325f604f89ffae7f99bf0da, type: 3}
    - {fileID: 21300000, guid: f9ada7b0ca7910c40972eb40c88551d4, type: 3}
    - {fileID: 21300000, guid: 237805641a3ab3d4fbde09629e655315, type: 3}
    - {fileID: 21300000, guid: 22eb2b3791fbb4340be5f50280964ca0, type: 3}
    - {fileID: 21300000, guid: c4f9fbb5ada1c814cbbb2696b02e0756, type: 3}
    - {fileID: 21300000, guid: 06b391401de9b764a94f778e9a03dcde, type: 3}
    - {fileID: 21300000, guid: d3850fadbccd6024baf0fe1034541a69, type: 3}
    - {fileID: 21300000, guid: 7c0d5ffe828101849b4b6b2ce7b3a6ea, type: 3}
    - {fileID: 21300000, guid: 0b538c3563470ce4ebabb101ba40b08a, type: 3}
    - {fileID: 21300000, guid: 8c75c237ec4f6c54aa1de248e40edb18, type: 3}
    - {fileID: 21300000, guid: bff215ee06b000648a6d6a770d411726, type: 3}
    - {fileID: 21300000, guid: c0c43c436def9634b909521f821386de, type: 3}
    - {fileID: 21300000, guid: 317864dbf37e18d45b56bc97d64ffe3b, type: 3}
    - {fileID: 21300000, guid: b24dc85323151534fbc047b9f8acbb7b, type: 3}
    - {fileID: 21300000, guid: 971d2aa54469da840bd94e6997d02127, type: 3}
    - {fileID: 21300000, guid: ea386841a92147b44a9ce73a833a70f7, type: 3}
    - {fileID: 21300000, guid: 78e5733234caf844d9d4863e0909bd4d, type: 3}
    - {fileID: 21300000, guid: 34f44eb5a2e06824c806e96085dc4ff3, type: 3}
    - {fileID: 21300000, guid: 88a48a30d3125f44493353ee4cd98a71, type: 3}
    - {fileID: 21300000, guid: becbfb616835b3748af6d72ef9afa619, type: 3}
    - {fileID: 21300000, guid: 9ee1d974a495c0b478598e390b9d7bc9, type: 3}
    - {fileID: 21300000, guid: 1acf87a7a3b9c2545a4950e95452d860, type: 3}
    - {fileID: 21300000, guid: 179b00bc540c74e4b90e59c667a0e7e9, type: 3}
    - {fileID: 21300000, guid: f15802403d78ea049b43d6ab20e6c686, type: 3}
    - {fileID: 21300000, guid: 33f6a56cd7404904bb489f46209b4181, type: 3}
    - {fileID: 21300000, guid: f682e658fb4017e4eb4fdcafdbabdbd9, type: 3}
    - {fileID: 21300000, guid: 9f8865fcbd4d1154eb60706b0a5e32a5, type: 3}
    - {fileID: 21300000, guid: 460a63b01bf3a5845a460e0c99023c5a, type: 3}
    - {fileID: 21300000, guid: 0f83e25ad0bc96945aec8bf64009fe1a, type: 3}
    - {fileID: 21300000, guid: 3af0c3e2ccd593f4ba0a0132e17a9cc6, type: 3}
    - {fileID: 21300000, guid: 1492905d0614ce44f902e2d842d129b4, type: 3}
    - {fileID: 21300000, guid: 8e2394e843c168a4e9c0ac62b231f018, type: 3}
    - {fileID: 21300000, guid: c3067ac23b55b464494e0189aa955537, type: 3}
    - {fileID: 21300000, guid: dcb03dbe09192574983d07faf13b2be2, type: 3}
    - {fileID: 21300000, guid: 66a7b69fcd075a24d81180426a126d4a, type: 3}
    - {fileID: 21300000, guid: d5ccda123c477fd4aaef6926cf3a2b86, type: 3}
    - {fileID: 21300000, guid: cb3d1155af8c120428b54b9d738ad6d7, type: 3}
    - {fileID: 21300000, guid: 4c17530180db6d24ca6abc0280b1ea14, type: 3}
    - {fileID: 21300000, guid: 345a4a5475175b549af58b44bff1b8af, type: 3}
    - {fileID: 21300000, guid: 9ac293bd4912e14449e6f9c6990d644c, type: 3}
    - {fileID: 21300000, guid: fd5c81c32ca6dae4c8cb6502890f9e0e, type: 3}
    - {fileID: 21300000, guid: 42b63a882a5df014885a46b5757be3f4, type: 3}
    - {fileID: 21300000, guid: 3307bd0159bb055429f1d9141e81a949, type: 3}
    - {fileID: 21300000, guid: cdb569cbc4a9fe74d8cd9b39f7ead9d7, type: 3}
    - {fileID: 21300000, guid: 63d95c8d1ae1e3244ad4a1994d113977, type: 3}
    - {fileID: 21300000, guid: a6b3f18e36f85ff4ba70511ea44bcab5, type: 3}
  m_AnimationClipSettings:
    serializedVersion: 2
    m_AdditiveReferencePoseClip: {fileID: 0}
    m_AdditiveReferencePoseTime: 0
    m_StartTime: 0
    m_StopTime: 1
    m_OrientationOffsetY: 0
    m_Level: 0
    m_CycleOffset: 0
    m_HasAdditiveReferencePose: 0
    m_LoopTime: 1
    m_LoopBlend: 0
    m_LoopBlendOrientation: 0
    m_LoopBlendPositionY: 0
    m_LoopBlendPositionXZ: 0
    m_KeepOriginalOrientation: 0
    m_KeepOriginalPositionY: 1
    m_KeepOriginalPositionXZ: 0
    m_HeightFromFeet: 0
    m_Mirror: 0
  m_EditorCurves: []
  m_EulerEditorCurves: []
  m_HasGenericRootTransform: 0
  m_HasMotionFloatCurves: 0
  m_Events: []
